Data Visualization 2
…
Box Plots

Lets briefly return to the homerange data and filter out carnivorous mammals. We can use a boxplot to visualize the differences in body mass by family.

homerange <- 
  readr::read_csv("data/Tamburelloetal_HomeRangeDatabase.csv")

carni_mammals <- 
  homerange %>% 
  filter(taxon=="mammals", trophic.guild=="carnivore")
carni_mammals

## # A tibble: 80 x 24
##    taxon common.name class order family genus species primarymethod N    
##    <chr> <chr>       <chr> <chr> <chr>  <chr> <chr>   <chr>         <chr>
##  1 mamm giant gold mamm afro chrys chry trevel telemetry*    <NA> 
##  2 mamm Grant's go mamm afro chrys erem granti  telemetry*    <NA> 
##  3 mamm arctic fox  mamm carn canid alop lagopus telemetry*    <NA> 
##  4 mamm Ethiopian  mamm carn canid canis simens telemetry*    <NA> 
##  5 mamm culpeo      mamm carn canid pseu culpae telemetry*    <NA> 
##  6 mamm South Amer mamm carn canid pseu griseus telemetry*    <NA> 
##  7 mamm kit fox     mamm carn canid vulp macroti telemetry*    <NA> 
##  8 mamm Ruppel's f mamm carn canid vulp ruppel telemetry*    <NA> 
##  9 mamm swift fox   mamm carn canid vulp velox   telemetry*    <NA> 
## 10 mamm fossa       mamm carn euple cryp ferox   telemetry*    <NA> 
## #  with 70 more rows, and 15 more variables: mean.mass.g <dbl>,
## #   log10.mass <dbl>, alternative.mass.reference <chr>, mean.hra.m2 <dbl>,
## #   log10.hra <dbl>, hra.reference <chr>, realm <chr>,
## #   thermoregulation <chr>, locomotion <chr>, trophic.guild <chr>,
## #   dimension <chr>, preymass <dbl>, log10.preymass <dbl>, PPMR <dbl>,
## #   prey.size.reference <chr>
…
