Data Visualization 1
…
Practice

Filter the homerange data to include mammals only.

mammals <- 
  homerange %>% 
  filter(taxon=="mammals")
mammals

## # A tibble: 238 x 12
##    common.name taxon family genus species mean.mass.g log10.mass
##    <chr>       <chr> <chr>  <chr> <chr>         <dbl>      <dbl>
##  1 giant gold mamm chrys chry trevel        437.       2.64
##  2 Grant's go mamm chrys erem granti          23        1.36
##  3 pronghorn   mamm antil anti americ      46100.       4.66
##  4 impala      mamm bovid aepy melamp      63504.       4.80
##  5 hartebeest  mamm bovid alce busela     136000.       5.13
##  6 barbary sh mamm bovid ammo lervia      167498.       5.22
##  7 American b mamm bovid bison bison       629999.       5.80
##  8 European b mamm bovid bison bonasus     628001.       5.80
##  9 goat        mamm bovid capra hircus       51000.       4.71
## 10 Spanish ib mamm bovid capra pyrena      69499.       4.84
## #  with 228 more rows, and 5 more variables: mean.hra.m2 <dbl>,
## #   log10.hra <dbl>, preymass <dbl>, log10.preymass <dbl>,
## #   trophic.guild <chr>
…
Make a barplot that shows the masses of the top 10 smallest mammals in terms of mass. Be sure to use stat'="identity".

mammals %>%
  arrange(log10.mass)

## # A tibble: 238 x 12
##    common.name taxon family genus species mean.mass.g log10.mass
##    <chr>       <chr> <chr>  <chr> <chr>         <dbl>      <dbl>
##  1 cinereus s mamm soric sorex cinere        4.17      0.620
##  2 slender sh mamm soric sorex gracil        4.37      0.640
##  3 arctic shr mamm soric sorex arctic        8.13      0.910
##  4 crowned sh mamm soric sorex corona        9.33      0.970
##  5 greater wh mamm soric croc russula       10         1    
##  6 salt marsh mamm crice reit ravive       11.0       1.04 
##  7 long-clawe mamm soric sorex unguic       14.1       1.15 
##  8 Northern t mamm didel mono americ       19.5       1.29 
##  9 wood mouse  mamm murid apod sylvat       21.2       1.33 
## 10 southern g mamm crice onyc torrid       22         1.34 
## #  with 228 more rows, and 5 more variables: mean.hra.m2 <dbl>,
## #   log10.hra <dbl>, preymass <dbl>, log10.preymass <dbl>,
## #   trophic.guild <chr>
…
