Data Visualization 1
…
Practice

Filter the homerange data to include mammals only.

mammals <- 
  homerange %>% 
  filter(taxon=="mammals") %>% 
  select(common.name, family, genus, species, trophic.guild, mean.mass.g, log10.mass, mean.hra.m2, log10.hra, preymass, log10.preymass)

mammals

## # A tibble: 238 x 11
##    common.name family genus species trophic.guild mean.mass.g log10.mass
##    <chr>       <chr>  <chr> <chr>   <chr>               <dbl>      <dbl>
##  1 giant gold chrys chry trevel carnivore            437.       2.64
##  2 Grant's go chrys erem granti  carnivore             23        1.36
##  3 pronghorn   antil anti americ herbivore          46100.       4.66
##  4 impala      bovid aepy melamp herbivore          63504.       4.80
##  5 hartebeest  bovid alce busela herbivore         136000.       5.13
##  6 barbary sh bovid ammo lervia  herbivore         167498.       5.22
##  7 American b bovid bison bison   herbivore         629999.       5.80
##  8 European b bovid bison bonasus herbivore         628001.       5.80
##  9 goat        bovid capra hircus  herbivore          51000.       4.71
## 10 Spanish ib bovid capra pyrena herbivore          69499.       4.84
## #  with 228 more rows, and 4 more variables: mean.hra.m2 <dbl>,
## #   log10.hra <dbl>, preymass <dbl>, log10.preymass <dbl>
…
