…
**4. What taxa are represented in the `homerange` data frame? Make a new data frame `taxa` that is restricted to taxon, common name, class, order, family, genus, species.**  

```r
taxa <- select(homerange, "taxon", "common.name", "class", "order", "family", "genus", "species")
taxa
```

```
## # A tibble: 569 × 7
##    taxon         common.name             class        order family genus species
##    <fct>         <chr>                   <chr>        <fct> <chr>  <chr> <chr>  
##  1 lake fishes   american eel            actinoptery… angu… angui… angu… rostra…
##  2 river fishes  blacktail redhorse      actinoptery… cypr… catos… moxo… poecil…
##  3 river fishes  central stoneroller     actinoptery… cypr… cypri… camp… anomal…
##  4 river fishes  rosyside dace           actinoptery… cypr… cypri… clin… fundul…
##  5 river fishes  longnose dace           actinoptery… cypr… cypri… rhin… catara…
##  6 river fishes  muskellunge             actinoptery… esoc… esoci… esox  masqui…
##  7 marine fishes pollack                 actinoptery… gadi… gadid… poll… pollac…
##  8 marine fishes saithe                  actinoptery… gadi… gadid… poll… virens 
##  9 marine fishes lined surgeonfish       actinoptery… perc… acant… acan… lineat…
## 10 marine fishes orangespine unicornfish actinoptery… perc… acant… naso  litura…
## # ℹ 559 more rows
```
…
**10. As measured by the data, which bird species has the largest homerange? Show all of your work, please. Look this species up online and tell me about it!**.  

[caracara](https://en.wikipedia.org/wiki/Caracara)


```r
birds <- filter(homerange, taxon=="birds")
birds <- select(birds, "common.name", "genus", "species", "mean.hra.m2")
arrange(birds, mean.hra.m2)
```

```
## # A tibble: 140 × 4
##    common.name             genus       species      mean.hra.m2
##    <chr>                   <chr>       <chr>              <dbl>
##  1 indigo bunting          passerina   cyanea             1052.
##  2 Carolina wren           thryothorus ludovicianus       1214.
##  3 yellow-breasted chat    icteria     virens             1335.
##  4 white-eyed vireo        vireo       griseus            1335.
##  5 American yellow warbler setophaga   petechia           1700.
##  6 least flycatcher        empidonax   minimus            1781.
##  7 American redstart       setophaga   ruticilla          1942.
##  8 inca dove               scardafella inca               2590.
##  9 Dartford warbler        sylvia      undata             2800 
## 10 wrentit                 chamaea     fasciata           3237.
## # ℹ 130 more rows
```
…
