…
## `superhero_info`
3. Let's say we are only interested in the variables name, alignment, and "race". How would you isolate these variables from `superhero_info`?

```r
superhero_info %>% select("name", "alignment", "race")
```

```
## # A tibble: 734 × 3
##    name          alignment race             
##    <chr>         <chr>     <chr>            
##  1 A-Bomb        good      Human            
##  2 Abe Sapien    good      Icthyo Sapien    
##  3 Abin Sur      good      Ungaran          
##  4 Abomination   bad       Human / Radiation
##  5 Abraxas       bad       Cosmic Entity    
##  6 Absorbing Man bad       Human            
##  7 Adam Monroe   good      <NA>             
##  8 Adam Strange  good      Human            
##  9 Agent 13      good      <NA>             
## 10 Agent Bob     good      Human            
## # ℹ 724 more rows
```
…
8. Among the bad guys, who are the male humans over 200 inches in height?

```r
bad_guys %>% filter(race=="Human" & gender=="Male" & height>=150)
```

```
## # A tibble: 36 × 10
##    name  gender eye_color race  hair_color height publisher skin_color alignment
##    <chr> <chr>  <chr>     <chr> <chr>       <dbl> <chr>     <chr>      <chr>    
##  1 Abso… Male   blue      Human No Hair       193 Marvel C… <NA>       bad      
##  2 Ammo  Male   brown     Human Black         188 Marvel C… <NA>       bad      
##  3 Bane  Male   <NA>      Human <NA>          203 DC Comics <NA>       bad      
##  4 Blac… Male   black     Human No Hair       188 DC Comics <NA>       bad      
##  5 Bull… Male   blue      Human blond         183 Marvel C… <NA>       bad      
##  6 Cloc… Male   blue      Human Black         178 DC Comics <NA>       bad      
##  7 Cott… Male   brown     Human Black         183 Marvel C… <NA>       bad      
##  8 Dead… Male   brown     Human Brown         185 DC Comics <NA>       bad      
##  9 Diam… Male   brown     Human Black         193 Marvel C… <NA>       bad      
## 10 Doct… Male   brown     Human Brown         201 Marvel C… <NA>       bad      
## # ℹ 26 more rows
## # ℹ 1 more variable: weight <dbl>
```
…
```r
superhero_info <- 
  superhero_info %>% 
  mutate(height_weight_ratio=height/weight)
```

12. Who has the highest height to weight ratio?  

```r
superhero_info %>% 
  arrange(desc(height_weight_ratio))
```

```
## # A tibble: 734 × 11
##    name  gender eye_color race  hair_color height publisher skin_color alignment
##    <chr> <chr>  <chr>     <chr> <chr>       <dbl> <chr>     <chr>      <chr>    
##  1 Groot Male   yellow    Flor… <NA>          701 Marvel C… <NA>       good     
##  2 Gala… Male   black     Cosm… Black         876 Marvel C… <NA>       neutral  
##  3 Fin … Male   red       Kaka… No Hair       975 Marvel C… green      good     
##  4 Long… Male   blue      Human Blond         188 Marvel C… <NA>       good     
##  5 Jack… Male   blue      Human Brown          71 Dark Hor… <NA>       good     
##  6 Rock… Male   brown     Anim… Brown         122 Marvel C… <NA>       good     
##  7 Dash  Male   blue      Human Blond         122 Dark Hor… <NA>       good     
##  8 Howa… Male   brown     <NA>  Yellow         79 Marvel C… <NA>       good     
##  9 Swarm Male   yellow    Muta… No Hair       196 Marvel C… yellow     bad      
## 10 Yoda  Male   brown     Yoda… White          66 George L… green      good     
## # ℹ 724 more rows
## # ℹ 2 more variables: weight <dbl>, height_weight_ratio <dbl>
```

## `superhero_powers`
Have a quick look at the `superhero_powers` data frame.  

13. How many superheros have a combination of agility, stealth, super_strength, stamina?

```r
superhero_powers %>%
  filter(agility & stealth & super_strength & stamina) %>%
  select(hero_names, agility, stealth, super_strength, stamina)
```

```
## # A tibble: 40 × 5
##    hero_names  agility stealth super_strength stamina
##    <chr>       <lgl>   <lgl>   <lgl>          <lgl>  
##  1 Alex Mercer TRUE    TRUE    TRUE           TRUE   
##  2 Angel       TRUE    TRUE    TRUE           TRUE   
##  3 Ant-Man II  TRUE    TRUE    TRUE           TRUE   
##  4 Aquaman     TRUE    TRUE    TRUE           TRUE   
##  5 Batman      TRUE    TRUE    TRUE           TRUE   
##  6 Black Flash TRUE    TRUE    TRUE           TRUE   
##  7 Black Manta TRUE    TRUE    TRUE           TRUE   
##  8 Brundlefly  TRUE    TRUE    TRUE           TRUE   
##  9 Buffy       TRUE    TRUE    TRUE           TRUE   
## 10 Cable       TRUE    TRUE    TRUE           TRUE   
## # ℹ 30 more rows
```


```r
superhero_powers %>% 
  select(hero_names, agility, stealth, super_strength, stamina) %>% 
  filter(agility==TRUE & stealth==TRUE & super_strength==TRUE & stamina==TRUE)
```

```
## # A tibble: 40 × 5
##    hero_names  agility stealth super_strength stamina
##    <chr>       <lgl>   <lgl>   <lgl>          <lgl>  
##  1 Alex Mercer TRUE    TRUE    TRUE           TRUE   
##  2 Angel       TRUE    TRUE    TRUE           TRUE   
##  3 Ant-Man II  TRUE    TRUE    TRUE           TRUE   
##  4 Aquaman     TRUE    TRUE    TRUE           TRUE   
##  5 Batman      TRUE    TRUE    TRUE           TRUE   
##  6 Black Flash TRUE    TRUE    TRUE           TRUE   
##  7 Black Manta TRUE    TRUE    TRUE           TRUE   
##  8 Brundlefly  TRUE    TRUE    TRUE           TRUE   
##  9 Buffy       TRUE    TRUE    TRUE           TRUE   
## 10 Cable       TRUE    TRUE    TRUE           TRUE   
## # ℹ 30 more rows
```
…
