…
```r
fisheries_tidy %>% distinct(country)
```

```
## # A tibble: 203 × 1
##    country            
##    <fct>              
##  1 Albania            
##  2 Algeria            
##  3 American Samoa     
##  4 Angola             
##  5 Anguilla           
##  6 Antigua and Barbuda
##  7 Argentina          
##  8 Aruba              
##  9 Australia          
## 10 Bahamas            
## # ℹ 193 more rows
```
…
4. Refocus the data only to include country, isscaap_taxonomic_group, asfis_species_name, asfis_species_number, year, catch.

```r
fisheries_tidy_focused <- fisheries_tidy %>% 
  select(country, isscaap_taxonomic_group, asfis_species_name, asfis_species_number, year, catch)
fisheries_tidy_focused
```

```
## # A tibble: 376,771 × 6
##    country isscaap_taxonomic_group asfis_species_name asfis_species_number  year
##    <fct>   <chr>                   <chr>              <fct>                <dbl>
##  1 Albania Sharks, rays, chimaeras Squatinidae        10903XXXXX            1995
##  2 Albania Sharks, rays, chimaeras Squatinidae        10903XXXXX            1996
##  3 Albania Sharks, rays, chimaeras Squatinidae        10903XXXXX            1997
##  4 Albania Sharks, rays, chimaeras Squatinidae        10903XXXXX            1998
##  5 Albania Sharks, rays, chimaeras Squatinidae        10903XXXXX            1999
##  6 Albania Sharks, rays, chimaeras Squatinidae        10903XXXXX            2000
##  7 Albania Sharks, rays, chimaeras Squatinidae        10903XXXXX            2001
##  8 Albania Sharks, rays, chimaeras Squatinidae        10903XXXXX            2002
##  9 Albania Sharks, rays, chimaeras Squatinidae        10903XXXXX            2003
## 10 Albania Sharks, rays, chimaeras Squatinidae        10903XXXXX            2004
## # ℹ 376,761 more rows
## # ℹ 1 more variable: catch <dbl>
```
…
6. Which country had the largest overall catch in the year 2000?

```r
fisheries_tidy_focused %>% 
  filter(year==2000) %>%
  group_by(country) %>% 
  summarize(catch_total=sum(catch, na.rm=T)) %>% 
  arrange(desc(catch_total))
```

```
## # A tibble: 193 × 2
##    country                  catch_total
##    <fct>                          <dbl>
##  1 China                          25899
##  2 Russian Federation             12181
##  3 United States of America       11762
##  4 Japan                           8510
##  5 Indonesia                       8341
##  6 Peru                            7443
##  7 Chile                           6906
##  8 India                           6351
##  9 Thailand                        6243
## 10 Korea, Republic of              6124
## # ℹ 183 more rows
```

7. Which country caught the most sardines (_Sardina pilchardus_) between the years 1990-2000?

```r
fisheries_tidy_focused %>% 
  filter(asfis_species_name== "Sardina pilchardus") %>% 
  filter(year>=1990 & year<=2000) %>% 
  group_by(country) %>% 
  summarize(catch_total=sum(catch, na.rm=T)) %>% 
  arrange(desc(catch_total))
```

```
## # A tibble: 37 × 2
##    country               catch_total
##    <fct>                       <dbl>
##  1 Morocco                      7470
##  2 Spain                        3507
##  3 Russian Federation           1639
##  4 Ukraine                      1030
##  5 France                        966
##  6 Portugal                      818
##  7 Greece                        528
##  8 Italy                         507
##  9 Serbia and Montenegro         478
## 10 Denmark                       477
## # ℹ 27 more rows
```
…
```r
sardines1 %>% 
  group_by(country) %>% 
  summarize(catch_total=sum(catch, na.rm=T)) %>% 
  arrange(desc(catch_total))
```

```
## # A tibble: 37 × 2
##    country               catch_total
##    <fct>                       <dbl>
##  1 Morocco                      7470
##  2 Spain                        3507
##  3 Russian Federation           1639
##  4 Ukraine                      1030
##  5 France                        966
##  6 Portugal                      818
##  7 Greece                        528
##  8 Italy                         507
##  9 Serbia and Montenegro         478
## 10 Denmark                       477
## # ℹ 27 more rows
```
…
```r
sardines2 %>% 
  group_by(country) %>% 
  summarize(catch_total=sum(catch, na.rm=T)) %>% 
  arrange(desc(catch_total))
```

```
## # A tibble: 120 × 2
##    country                  catch_total
##    <fct>                          <dbl>
##  1 Peru                           93297
##  2 Chile                          37785
##  3 Japan                          33104
##  4 Russian Federation             13634
##  5 China                          13349
##  6 Indonesia                      12710
##  7 United States of America       11939
##  8 Thailand                       10364
##  9 Denmark                         9838
## 10 Philippines                     8756
## # ℹ 110 more rows
```

8. Which five countries caught the most cephalopods between 2008-2012?

```r
fisheries_tidy_focused %>% 
  filter(str_detect(isscaap_taxonomic_group, "Squids")) %>% 
  filter(year>=2008 & year<=2012) %>% 
  group_by(country) %>% 
  summarize(catch_total=sum(catch, na.rm=T)) %>% 
  arrange(desc(catch_total))
```

```
## # A tibble: 122 × 2
##    country                  catch_total
##    <fct>                          <dbl>
##  1 China                           8349
##  2 Korea, Republic of              3480
##  3 Peru                            3422
##  4 Japan                           3248
##  5 Chile                           2775
##  6 United States of America        2417
##  7 Indonesia                       1622
##  8 Taiwan Province of China        1394
##  9 Spain                           1147
## 10 France                          1138
## # ℹ 112 more rows
```


```r
fisheries_tidy_focused %>% 
  filter(isscaap_taxonomic_group=="Squids, cuttlefishes, octopuses") %>% 
  count(asfis_species_name, sort=T)
```

```
## # A tibble: 35 × 2
##    asfis_species_name              n
##    <chr>                       <int>
##  1 Loliginidae, Ommastrephidae  3072
##  2 Octopodidae                  2935
##  3 Sepiidae, Sepiolidae         2605
##  4 Loligo spp                   1424
##  5 Sepia officinalis             699
##  6 Octopus vulgaris              611
##  7 Illex illecebrosus            460
##  8 Cephalopoda                   421
##  9 Illex argentinus              413
## 10 Loligo gahi                   281
## # ℹ 25 more rows
```

9. Which species had the highest catch total between 2008-2012? (hint: Osteichthyes is not a species)

```r
fisheries_tidy_focused %>% 
  filter(year>=2008 & year<=2012)%>% 
  group_by(asfis_species_name) %>% 
  summarize(catch_total=sum(catch, na.rm=T)) %>% 
  arrange(desc(catch_total))
```

```
## # A tibble: 1,472 × 2
##    asfis_species_name    catch_total
##    <chr>                       <dbl>
##  1 Osteichthyes               107808
##  2 Theragra chalcogramma       41075
##  3 Engraulis ringens           35523
##  4 Katsuwonus pelamis          32153
##  5 Trichiurus lepturus         30400
##  6 Clupea harengus             28527
##  7 Thunnus albacares           20119
##  8 Scomber japonicus           14723
##  9 Gadus morhua                13253
## 10 Thunnus alalunga            12019
## # ℹ 1,462 more rows
```
…
