…
Any NAs?

```r
naniar::miss_var_summary(visibility_tidy)
```

```
## # A tibble: 24 × 3
##    variable     n_miss pct_miss
##    <chr>         <int>    <dbl>
##  1 svr_val        2614     9.81
##  2 om_cf_val      2251     8.45
##  3 amm_no3f_val   2180     8.19
##  4 e_cf_val       2162     8.12
##  5 soi_lf_val     1999     7.51
##  6 amm_so4f_val   1988     7.46
##  7 dataset           0     0   
##  8 site_code         0     0   
##  9 poc               0     0   
## 10 month             0     0   
## # … with 14 more rows
```
…
First, summarise SVR by site:

```r
visibility3 <- visibility_tidy %>% 
  group_by(site_name) %>% 
  summarise(across(c(svr_val, elevation), mean, na.rm=T), total=n()) %>% 
   arrange(desc(svr_val))
visibility3
```

```
## # A tibble: 23 × 4
##    site_name              svr_val elevation total
##    <chr>                    <dbl>     <dbl> <int>
##  1 Hoover                    223.     2561.  1339
##  2 Bliss SP (TRPA) (RHTS)    206.     2131.   244
##  3 Lassen Volcanic NP        206.     1733.  1339
##  4 Bliss SP (TRPA)           205.     2131.  1339
##  5 Lava Beds NM              198.     1460.  1339
##  6 Death Valley NP           190.      130    283
##  7 Trinity                   190.     1014   1215
##  8 Kaiser                    188.     2598.  1339
##  9 Yosemite NP               171.     1603   1339
## 10 Owens Valley              170.     1234   1037
## # … with 13 more rows
```
…
