…
**2. Please load all the data files from `us_individual_collar_data` and combine all data into one data frame. Create a summary to show what is the maximum and minimum of recorded data points on longitude and latitude.**

```r
# summary table
data_list <- lapply(data_files, read_csv)
(collar_data_all <- bind_rows(data_list))
```

```
## # A tibble: 240 x 6
##       X1 date       collar time                  lat  long
##    <dbl> <date>     <chr>  <dttm>              <dbl> <dbl>
##  1     1 2016-02-26 A1     2016-02-26 00:00:00  37.0 -116.
##  2     2 2016-02-26 A1     2016-02-26 01:00:00  38.4 -117.
##  3     3 2016-02-26 A1     2016-02-26 02:00:00  37.9 -117.
##  4     4 2016-02-26 A1     2016-02-26 03:00:00  38.1 -115.
##  5     5 2016-02-26 A1     2016-02-26 04:00:00  35.4 -116.
##  6     6 2016-02-26 A1     2016-02-26 05:00:00  36.6 -114.
##  7     7 2016-02-26 A1     2016-02-26 06:00:00  36.9 -115.
##  8     8 2016-02-26 A1     2016-02-26 07:00:00  37.3 -115.
##  9     9 2016-02-26 A1     2016-02-26 08:00:00  35.6 -114.
## 10    10 2016-02-26 A1     2016-02-26 09:00:00  35.9 -114.
## # ... with 230 more rows
```
…
