…
What does percentile refer to? Percentile visibility? 

```r
park_visibility %>% 
  count(site_name, percentile)
```

```
## # A tibble: 138 × 3
##    site_name       percentile     n
##    <chr>                <dbl> <int>
##  1 Agua Tibia               0   495
##  2 Agua Tibia              10   165
##  3 Agua Tibia              30   161
##  4 Agua Tibia              50   185
##  5 Agua Tibia              70   161
##  6 Agua Tibia              90   172
##  7 Bliss SP (TRPA)          0   212
##  8 Bliss SP (TRPA)         10   222
##  9 Bliss SP (TRPA)         30   215
## 10 Bliss SP (TRPA)         50   245
## # … with 128 more rows
```
…
