…
## `superhero_info`
3. Let's say we are only interested in the variables name, alignment, and "race". How would you isolate these variables from `superhero_info`?

```r
superhero_info %>% select("name", "alignment", "race")
```

```
## # A tibble: 734 × 3
##    name          alignment race             
##    <chr>         <chr>     <chr>            
##  1 A-Bomb        good      Human            
##  2 Abe Sapien    good      Icthyo Sapien    
##  3 Abin Sur      good      Ungaran          
##  4 Abomination   bad       Human / Radiation
##  5 Abraxas       bad       Cosmic Entity    
##  6 Absorbing Man bad       Human            
##  7 Adam Monroe   good      <NA>             
##  8 Adam Strange  good      Human            
##  9 Agent 13      good      <NA>             
## 10 Agent Bob     good      Human            
## # … with 724 more rows
```
…
9. OK, so are there more good guys or bad guys that are bald (personal interest)?
_There are more bald good guys!_  


```r
good_guys %>% 
  filter(hair_color=="No Hair")
```

```
## # A tibble: 37 × 10
##    name       gender eye_c…¹ race  hair_…² height publi…³ skin_…⁴ align…⁵ weight
##    <chr>      <chr>  <chr>   <chr> <chr>    <dbl> <chr>   <chr>   <chr>    <dbl>
##  1 A-Bomb     Male   yellow  Human No Hair    203 Marvel… <NA>    good       441
##  2 Abe Sapien Male   blue    Icth… No Hair    191 Dark H… blue    good        65
##  3 Abin Sur   Male   blue    Unga… No Hair    185 DC Com… red     good        90
##  4 Beta Ray … Male   <NA>    <NA>  No Hair    201 Marvel… <NA>    good       216
##  5 Bishop     Male   brown   Muta… No Hair    198 Marvel… <NA>    good       124
##  6 Black Lig… Male   brown   <NA>  No Hair    185 DC Com… <NA>    good        90
##  7 Blaquesmi… <NA>   black   <NA>  No Hair     NA Marvel… <NA>    good        NA
##  8 Bloodhawk  Male   black   Muta… No Hair     NA Marvel… <NA>    good        NA
##  9 Crimson D… Male   brown   <NA>  No Hair    180 Marvel… <NA>    good       104
## 10 Donatello  Male   green   Muta… No Hair     NA IDW Pu… green   good        NA
## # … with 27 more rows, and abbreviated variable names ¹​eye_color, ²​hair_color,
## #   ³​publisher, ⁴​skin_color, ⁵​alignment
```


```r
bad_guys %>% 
  filter(hair_color=="No Hair")
```

```
## # A tibble: 35 × 10
##    name       gender eye_c…¹ race  hair_…² height publi…³ skin_…⁴ align…⁵ weight
##    <chr>      <chr>  <chr>   <chr> <chr>    <dbl> <chr>   <chr>   <chr>    <dbl>
##  1 Abominati… Male   green   Huma… No Hair  203   Marvel… <NA>    bad        441
##  2 Absorbing… Male   blue    Human No Hair  193   Marvel… <NA>    bad        122
##  3 Alien      Male   <NA>    Xeno… No Hair  244   Dark H… black   bad        169
##  4 Annihilus  Male   green   <NA>  No Hair  180   Marvel… <NA>    bad         90
##  5 Anti-Moni… Male   yellow  God … No Hair   61   DC Com… <NA>    bad         NA
##  6 Black Man… Male   black   Human No Hair  188   DC Com… <NA>    bad         92
##  7 Bloodwrai… Male   white   <NA>  No Hair   30.5 Marvel… <NA>    bad         NA
##  8 Brainiac   Male   green   Andr… No Hair  198   DC Com… green   bad        135
##  9 Darkseid   Male   red     New … No Hair  267   DC Com… grey    bad        817
## 10 Darth Vad… Male   yellow  Cybo… No Hair  198   George… <NA>    bad        135
## # … with 25 more rows, and abbreviated variable names ¹​eye_color, ²​hair_color,
## #   ³​publisher, ⁴​skin_color, ⁵​alignment
```
…
## Height to Weight Ratio
13. It's easy to be strong when you are heavy and tall, but who is heavy and short? Which superheros have the highest height to weight ratio?

```r
superhero_info %>% 
  mutate(height_weight_ratio=height/weight) %>% 
  select(name, height_weight_ratio) %>% 
  arrange(height_weight_ratio)
```

```
## # A tibble: 734 × 2
##    name        height_weight_ratio
##    <chr>                     <dbl>
##  1 Giganta                  0.0992
##  2 Utgard-Loki              0.262 
##  3 Darkseid                 0.327 
##  4 Juggernaut               0.336 
##  5 Red Hulk                 0.338 
##  6 Sasquatch                0.339 
##  7 Hulk                     0.387 
##  8 Bloodaxe                 0.440 
##  9 Thanos                   0.454 
## 10 A-Bomb                   0.460 
## # … with 724 more rows
```
…
```r
#pink purple bunnies
```

14. How many superheros have a combination of accelerated healing, durability, and super strength?

```r
superhero_powers %>% 
  filter(accelerated_healing==TRUE & durability==TRUE & super_strength==TRUE)
```

```
## # A tibble: 97 × 168
##    hero_names   agility accele…¹ lante…² dimen…³ cold_…⁴ durab…⁵ stealth energ…⁶
##    <chr>        <lgl>   <lgl>    <lgl>   <lgl>   <lgl>   <lgl>   <lgl>   <lgl>  
##  1 A-Bomb       FALSE   TRUE     FALSE   FALSE   FALSE   TRUE    FALSE   FALSE  
##  2 Abe Sapien   TRUE    TRUE     FALSE   FALSE   TRUE    TRUE    FALSE   FALSE  
##  3 Angel        TRUE    TRUE     FALSE   FALSE   FALSE   TRUE    TRUE    FALSE  
##  4 Anti-Monitor FALSE   TRUE     FALSE   TRUE    FALSE   TRUE    FALSE   TRUE   
##  5 Anti-Venom   FALSE   TRUE     FALSE   FALSE   FALSE   TRUE    FALSE   FALSE  
##  6 Aquaman      TRUE    TRUE     FALSE   FALSE   TRUE    TRUE    TRUE    FALSE  
##  7 Arachne      TRUE    TRUE     FALSE   FALSE   FALSE   TRUE    FALSE   FALSE  
##  8 Archangel    TRUE    TRUE     FALSE   FALSE   FALSE   TRUE    FALSE   FALSE  
##  9 Ardina       TRUE    TRUE     FALSE   FALSE   TRUE    TRUE    FALSE   FALSE  
## 10 Ares         TRUE    TRUE     FALSE   FALSE   FALSE   TRUE    FALSE   FALSE  
## # … with 87 more rows, 159 more variables: flight <lgl>, danger_sense <lgl>,
## #   underwater_breathing <lgl>, marksmanship <lgl>, weapons_master <lgl>,
## #   power_augmentation <lgl>, animal_attributes <lgl>, longevity <lgl>,
## #   intelligence <lgl>, super_strength <lgl>, cryokinesis <lgl>,
## #   telepathy <lgl>, energy_armor <lgl>, energy_blasts <lgl>,
## #   duplication <lgl>, size_changing <lgl>, density_control <lgl>,
## #   stamina <lgl>, astral_travel <lgl>, audio_control <lgl>, dexterity <lgl>, …
```
…
