…
```
## # A tibble: 1 × 1
##   number_nas
##        <int>
## 1          0
```


```r
amniota %>% miss_var_summary()
```

```
## # A tibble: 36 × 3
##    variable                  n_miss pct_miss
##    <chr>                      <int>    <dbl>
##  1 class                          0        0
##  2 order                          0        0
##  3 family                         0        0
##  4 genus                          0        0
##  5 species                        0        0
##  6 subspecies                     0        0
##  7 common_name                    0        0
##  8 female_maturity_d              0        0
##  9 litter_or_clutch_size_n        0        0
## 10 litters_or_clutches_per_y      0        0
## # … with 26 more rows
```
…
```
## Warning in replace_with_na.data.frame(., replace = list(x = -999)): Missing
## from data: x
```


```r
amniota %>% 
  naniar::replace_with_na_all(condition = ~.x == -999)
```

```
## # A tibble: 21,322 × 36
##    class order      family genus species subsp…¹ commo…² femal…³ litte…⁴ litte…⁵
##    <chr> <chr>      <chr>  <chr> <chr>     <dbl> <chr>     <dbl>   <dbl>   <dbl>
##  1 Aves  Accipitri… Accip… Acci… albogu…      NA Pied G…     NA    NA         NA
##  2 Aves  Accipitri… Accip… Acci… badius       NA Shikra     363.    3.25       1
##  3 Aves  Accipitri… Accip… Acci… bicolor      NA Bicolo…     NA     2.7       NA
##  4 Aves  Accipitri… Accip… Acci… brachy…      NA New Br…     NA    NA         NA
##  5 Aves  Accipitri… Accip… Acci… brevip…      NA Levant…    363.    4          1
##  6 Aves  Accipitri… Accip… Acci… castan…      NA Chestn…     NA    NA         NA
##  7 Aves  Accipitri… Accip… Acci… chilen…      NA Chilea…     NA     2.7       NA
##  8 Aves  Accipitri… Accip… Acci… chiono…      NA White-…    548.    4.25       1
##  9 Aves  Accipitri… Accip… Acci… cirroc…      NA Collar…     NA     3.25      NA
## 10 Aves  Accipitri… Accip… Acci… cooper…      NA Cooper…    730     4.35       1
## # … with 21,312 more rows, 26 more variables: adult_body_mass_g <dbl>,
## #   maximum_longevity_y <dbl>, gestation_d <dbl>, weaning_d <dbl>,
## #   birth_or_hatching_weight_g <dbl>, weaning_weight_g <dbl>, egg_mass_g <dbl>,
## #   incubation_d <dbl>, fledging_age_d <dbl>, longevity_y <dbl>,
## #   male_maturity_d <dbl>, inter_litter_or_interbirth_interval_y <dbl>,
## #   female_body_mass_g <dbl>, male_body_mass_g <dbl>, no_sex_body_mass_g <dbl>,
## #   egg_width_mm <dbl>, egg_length_mm <dbl>, fledging_mass_g <dbl>, …
```
…
```r
amniota_tidy %>% 
  select(genus, species, female_maturity_d) %>% 
  mutate(female_maturity_d2=ifelse(female_maturity_d<0, NA, female_maturity_d))%>% 
  arrange(female_maturity_d2)
```

```
## # A tibble: 21,322 × 4
##    genus        species       female_maturity_d female_maturity_d2
##    <chr>        <chr>                     <dbl>              <dbl>
##  1 Microtus     californicus               23.8               23.8
##  2 Lemmus       lemmus                     24                 24  
##  3 Microtus     canicaudus                 24.9               24.9
##  4 Microtus     montanus                   24.9               24.9
##  5 Eolagurus    luteus                     27.2               27.2
##  6 Oligoryzomys destructor                 27.7               27.7
##  7 Oligoryzomys longicaudatus              27.7               27.7
##  8 Oligoryzomys magellanicus               27.7               27.7
##  9 Akodon       molinae                    28.1               28.1
## 10 Ototylomys   phyllotis                  28.2               28.2
## # … with 21,312 more rows
```

**6. Use the package `naniar` to produce a summary, including percentages, of missing data in each column for the `amniota` data.**  

```r
naniar::miss_var_summary(amniota_tidy) #how many NAs with percentages
```

```
## # A tibble: 36 × 3
##    variable                  n_miss pct_miss
##    <chr>                      <int>    <dbl>
##  1 class                          0        0
##  2 order                          0        0
##  3 family                         0        0
##  4 genus                          0        0
##  5 species                        0        0
##  6 subspecies                     0        0
##  7 common_name                    0        0
##  8 female_maturity_d              0        0
##  9 litter_or_clutch_size_n        0        0
## 10 litters_or_clutches_per_y      0        0
## # … with 26 more rows
```

**7. Use the package `naniar` to produce a summary, including percentages, of missing data in each column for the `amphibio` data.**

```r
naniar::miss_var_summary(amphibio)
```

```
## # A tibble: 38 × 3
##    variable n_miss pct_miss
##    <chr>     <int>    <dbl>
##  1 fruits     6774    100. 
##  2 flowers    6772     99.9
##  3 seeds      6772     99.9
##  4 leaves     6752     99.6
##  5 dry_cold   6735     99.4
##  6 vert       6657     98.2
##  7 obs        6651     98.2
##  8 wet_cold   6625     97.8
##  9 crepu      6608     97.5
## 10 dry_warm   6572     97.0
## # … with 28 more rows
```
…
