…
``` r
homerange$order <- as.factor(homerange$order)
```

**8. Use `select` to pull out the variables taxon and common.name.**  

``` r
select(homerange, taxon, common.name)
```

```
## # A tibble: 569 × 2
##    taxon         common.name            
##    <fct>         <chr>                  
##  1 lake fishes   american eel           
##  2 river fishes  blacktail redhorse     
##  3 river fishes  central stoneroller    
##  4 river fishes  rosyside dace          
##  5 river fishes  longnose dace          
##  6 river fishes  muskellunge            
##  7 marine fishes pollack                
##  8 marine fishes saithe                 
##  9 marine fishes lined surgeonfish      
## 10 marine fishes orangespine unicornfish
## # ℹ 559 more rows
```

**9. Use `filter` to pull out all mammals from the data.**

``` r
filter(homerange, taxon == "mammals")
```

```
## # A tibble: 238 × 24
##    taxon   common.name      class order family genus species primarymethod N    
##    <fct>   <chr>            <chr> <fct> <chr>  <chr> <chr>   <chr>         <chr>
##  1 mammals giant golden mo… mamm… afro… chrys… chry… trevel… telemetry*    <NA> 
##  2 mammals Grant's golden … mamm… afro… chrys… erem… granti  telemetry*    <NA> 
##  3 mammals pronghorn        mamm… arti… antil… anti… americ… telemetry*    <NA> 
##  4 mammals impala           mamm… arti… bovid… aepy… melamp… telemetry*    <NA> 
##  5 mammals hartebeest       mamm… arti… bovid… alce… busela… telemetry*    <NA> 
##  6 mammals barbary sheep    mamm… arti… bovid… ammo… lervia  telemetry*    <NA> 
##  7 mammals American bison   mamm… arti… bovid… bison bison   telemetry*    <NA> 
##  8 mammals European bison   mamm… arti… bovid… bison bonasus telemetry*    <NA> 
##  9 mammals goat             mamm… arti… bovid… capra hircus  telemetry*    <NA> 
## 10 mammals Spanish ibex     mamm… arti… bovid… capra pyrena… telemetry*    <NA> 
## # ℹ 228 more rows
## # ℹ 15 more variables: mean.mass.g <dbl>, log10.mass <dbl>,
## #   alternative.mass.reference <chr>, mean.hra.m2 <dbl>, log10.hra <dbl>,
## #   hra.reference <chr>, realm <chr>, thermoregulation <chr>, locomotion <chr>,
## #   trophic.guild <chr>, dimension <dbl>, preymass <dbl>, log10.preymass <dbl>,
## #   PPMR <dbl>, prey.size.reference <chr>
```
…
